tidyfun
…
tf vectors in dataframes

The main goal of tidyfun is to ease exploratory analysis by putting functional data in data frames. Since tf vectors are treated the same way as vectors of class numeric or factor, they can enter dataframes the same way.

The DTI data, for example, include scalar covariates and two functional variables:

dti_df
## # A tibble: 382 x 5
##       id sex    case   cca                        rcst                     
##    <dbl> <fct>  <fct>  <tfd_irrg>                 <tfd_irrg>               
##  1  1001 female contr… 1001_1: (0.000,0.49);(0.0… 1001_1: (0.000,0.26);(0.…
##  2  1002 female contr… 1002_1: (0.000,0.47);(0.0… 1002_1: ( 0.22,0.44);( 0…
##  3  1003 male   contr… 1003_1: (0.000,0.50);(0.0… 1003_1: ( 0.22,0.42);( 0…
##  4  1004 male   contr… 1004_1: (0.000,0.40);(0.0… 1004_1: (0.000,0.51);(0.…
##  5  1005 male   contr… 1005_1: (0.000,0.40);(0.0… 1005_1: ( 0.22,0.40);( 0…
##  6  1006 male   contr… 1006_1: (0.000,0.45);(0.0… 1006_1: (0.056,0.47);(0.…
##  7  1007 male   contr… 1007_1: (0.000,0.55);(0.0… 1007_1: (0.000,0.52);(0.…
##  8  1008 male   contr… 1008_1: (0.000,0.45);(0.0… 1008_1: (0.000,0.33);(0.…
##  9  1009 male   contr… 1009_1: (0.000,0.50);(0.0… 1009_1: (0.000,0.57);(0.…
## 10  1010 male   contr… 1010_1: (0.000,0.46);(0.0… 1010_1: ( 0.22,0.44);( 0…
## # … with 372 more rows

And the CHF data is an example of a multilevel dataset with a functional observation:

chf_df 
## # A tibble: 329 x 9
##       id gender   age   bmi event_week event_type  week day    activity    
##    <int> <chr>  <int> <int>      <int> <chr>      <int> <chr>  <tfd_reg>   
##  1     1 Male      41    26         41 .              1 Monday [1]: (1,0);…
##  2     1 Male      41    26         41 .              1 Tuesd… [2]: (1,0);…
##  3     1 Male      41    26         41 .              1 Wedne… [3]: (1,0);…
##  4     1 Male      41    26         41 .              1 Thurs… [4]: (1,4);…
##  5     1 Male      41    26         41 .              1 Friday [5]: (1,6);…
##  6     1 Male      41    26         41 .              1 Satur… [6]: (1,0);…
##  7     1 Male      41    26         41 .              1 Sunday [7]: (1,5);…
##  8     3 Female    81    21         32 .              1 Monday [8]: (1,3);…
##  9     3 Female    81    21         32 .              1 Tuesd… [9]: (1,0);…
## 10     3 Female    81    21         32 .              1 Wedne… [10]: (1,0)…
## # … with 319 more rows
…
dti_df$cca = tfd(refund::DTI$cca, arg = seq(0,1, l = 93))
dti_df$rcst = tfd(refund::DTI$rcst, arg = seq(0, 1, l = 55))

“Long” format data frames containing functional data include columns containing a subject identifier, the functional argument, and the value each subject’s function takes at each argument. There are also often (but not always) non-functional covariates that are repeated within a subject. For data in this form, we use tf_nest to produce a data frame containing a single row for each subject.

An example is the pig weight data from the SemiPar package, which is a nice example from longitudinal data analysis. This includes columns for id.num, num.weeks, and weight – which correspond to the subject, argument, and value.

data("pig.weights", package = "SemiPar")

pig.weights = as_tibble(pig.weights)

pig.weights
## # A tibble: 432 x 3
##    id.num num.weeks weight
##     <int>     <int>  <dbl>
##  1      1         1   24  
##  2      1         2   32  
##  3      1         3   39  
##  4      1         4   42.5
##  5      1         5   48  
##  6      1         6   54.5
##  7      1         7   61  
##  8      1         8   65  
##  9      1         9   72  
## 10      2         1   22.5
## # … with 422 more rows

We create pig_df by nesting weight within subject. The result is a data frame containing a single row for each pig, and columns for id.num and the weight function.

pig_df = 
  pig.weights %>% 
  tf_nest(weight, .id = id.num, .arg = num.weeks)

pig_df
## # A tibble: 48 x 2
##    id.num weight                       
##     <int> <tfd_reg>                    
##  1      1 1: (1,24);(2,32);(3,39); ... 
##  2      2 2: (1,22);(2,30);(3,40); ... 
##  3      3 3: (1,22);(2,28);(3,36); ... 
##  4      4 4: (1,24);(2,32);(3,40); ... 
##  5      5 5: (1,24);(2,32);(3,37); ... 
##  6      6 6: (1,23);(2,30);(3,36); ... 
##  7      7 7: (1,22);(2,28);(3,36); ... 
##  8      8 8: (1,24);(2,30);(3,38); ... 
##  9      9 9: (1,20);(2,28);(3,33); ... 
## 10     10 10: (1,26);(2,32);(3,40); ...
## # … with 38 more rows
…
